%YAML 1.1
%TAG !u! tag:unity3d.com,2011:
--- !u!114 &11400000
MonoBehaviour:
  m_ObjectHideFlags: 0
  m_CorrespondingSourceObject: {fileID: 0}
  m_PrefabInstance: {fileID: 0}
  m_PrefabAsset: {fileID: 0}
  m_GameObject: {fileID: 0}
  m_Enabled: 1
  m_EditorHideFlags: 0
  m_Script: {fileID: 11500000, guid: 5621e5ad1b9084f8bb66de8251cfd5a3, type: 3}
  m_Name: Space_6
  m_EditorClassIdentifier: 
  version: 0
  sku: 647f22904a9ed975dff97982
  packageName: Laserum - Metaverso360
  thumbnail: {fileID: 2800000, guid: 11522df19797a6c4290c9349a6f55ccf, type: 3}
  savedProjectSettings: {fileID: 11400000, guid: b4d3f3931508d4e3381693ee23f6fe04,
    type: 2}
  worldID: kWOsPvV7ktTslzS8fYY4E
  scene: {fileID: 102900000, guid: a74211f46570cac4492ecaaa9666ecd1, type: 3}
